<?php xml version="1.0" encoding="utf-8"?>
<!DOCTYPE svg PUBLIC "-//W3C//DTD SVG 1.1//EN" "http://www.w3.org/Graphics/SVG/1.1/DTD/svg11.dtd">
<svg xmlns="http://www.w3.org/2000/svg" xmlns:xlink="http://www.w3.org/1999/xlink" version="1.1" width="24px" height="32px" viewBox="0 0 24 32">

	<defs>
		<filter id="f1" >
			<feGaussianBlur in="SourceGraphic" stdDeviation="1"/>
		</filter>
	</defs>

	<rect x="2" y="4" fill="#000000" opacity="0.3" width="20" height="26" rx="3" ry="3" filter="url(#f1)"/>
	<rect x="2" y="3" fill="#ffffff" width="20" height="26" rx="3" ry="3"/>
	<line x1="10.5" y1="11" x2="10.5" y2="21" stroke="#A9A9A9"/>
	<line x1="13.5" y1="11" x2="13.5" y2="21" stroke="#A9A9A9"/>
</svg>
