<?php xml version="1.0" encoding="utf-8"?>
<!-- Generator: Adobe Illustrator 17.0.0, SVG Export Plug-In . SVG Version: 6.00 Build 0)  -->
<!DOCTYPE svg PUBLIC "-//W3C//DTD SVG 1.1//EN" "http://www.w3.org/Graphics/SVG/1.1/DTD/svg11.dtd">
<svg version="1.1" id="Layer_1" xmlns="http://www.w3.org/2000/svg" xmlns:xlink="http://www.w3.org/1999/xlink" x="0px" y="0px"
	 width="8px" height="2px" viewBox="0 0 8 2" enable-background="new 0 0 8 2" xml:space="preserve">
<path fill="none" stroke="#EEBB9E" stroke-width="0.75" d="M-8.068,1c1.006-0.978,3.017-0.978,4.022,0
	c1.006,0.978,3.017,0.978,4.023,0C0.983,0.022,2.994,0.022,4,1c1.006,0.978,3.017,0.978,4.023,0c1.006-0.978,3.017-0.978,4.022,0
	c1.006,0.978,3.017,0.978,4.023,0"/>
</svg>
