<?php xml version="1.0" encoding="UTF-8" standalone="no"?>
<svg
   xmlns="http://www.w3.org/2000/svg"
   width="64"
   height="64"
   viewBox="0 0 64 64">
  <path
     d="M 32.003143,1.4044602 57.432701,62.632577 6.5672991,62.627924 z"
     style="fill:#ffff00;fill-opacity:0.94117647;fill-rule:nonzero;stroke:#000000;stroke-width:1.00493038;stroke-miterlimit:4;stroke-opacity:1;stroke-dasharray:none" />
</svg>
